<?xml version="1.0" encoding="utf-8"?>
<!-- Generator: Adobe Illustrator 25.4.1, SVG Export Plug-In . SVG Version: 6.00 Build 0)  -->
<svg version="1.1" xmlns="http://www.w3.org/2000/svg" xmlns:xlink="http://www.w3.org/1999/xlink" x="0px" y="0px"
	 viewBox="0 0 300 300" style="enable-background:new 0 0 300 300;" xml:space="preserve">
<style type="text/css">
	.st0{fill:#F6B729;}
	.st1{fill:#FFFFFF;}
	.st2{opacity:0.13;fill:#010101;}
</style>
<g id="Capa_1">
</g>
<g id="Layer_1">
	<circle class="st0" cx="149.68" cy="150.47" r="150"/>
	<g>
		<path class="st1" d="M104.55,84.5v140h-26V106.3h-29.6V84.5H104.55z"/>
		<path class="st1" d="M220.75,143.4c7.33,3.53,13.07,8.57,17.2,15.1c4.13,6.53,6.2,14.07,6.2,22.6c0,9.07-2.27,17.04-6.8,23.9
			c-4.53,6.87-10.67,12.17-18.4,15.9c-7.73,3.73-16.4,5.6-26,5.6c-19.2,0-34.1-6-44.7-18c-10.6-12-15.9-29.2-15.9-51.6
			c0-15.73,2.87-29.17,8.6-40.3c5.73-11.13,13.77-19.6,24.1-25.4c10.33-5.8,22.3-8.7,35.9-8.7c7.2,0,13.96,0.77,20.3,2.3
			c6.33,1.53,11.83,3.77,16.5,6.7l-9.6,19.6c-6.93-4.53-15.8-6.8-26.6-6.8c-13.47,0-24,4.13-31.6,12.4
			c-7.6,8.27-11.4,20.2-11.4,35.8v0.2c4.13-4.8,9.4-8.43,15.8-10.9c6.4-2.47,13.6-3.7,21.6-3.7
			C205.15,138.1,213.42,139.87,220.75,143.4z M211.35,199.6c5.07-4.33,7.6-10.1,7.6-17.3c0-7.33-2.54-13.13-7.6-17.4
			c-5.07-4.27-11.87-6.4-20.4-6.4c-8.4,0-15.23,2.27-20.5,6.8c-5.27,4.53-7.9,10.27-7.9,17.2c0,6.8,2.57,12.43,7.7,16.9
			c5.13,4.47,12.23,6.7,21.3,6.7C199.68,206.1,206.28,203.94,211.35,199.6z"/>
	</g>
	<path class="st2" d="M238.63,29.2C23.92,19.99,16.87,217.47,16.82,218.9C6.28,198.38,0.34,175.12,0.34,150.48
		c0-82.85,67.16-150,150-150C183.34,0.48,213.86,11.14,238.63,29.2z"/>
</g>
</svg>
