<?xml version="1.0" encoding="utf-8"?>
<!-- Generator: Adobe Illustrator 25.4.1, SVG Export Plug-In . SVG Version: 6.00 Build 0)  -->
<svg version="1.1" xmlns="http://www.w3.org/2000/svg" xmlns:xlink="http://www.w3.org/1999/xlink" x="0px" y="0px"
	 viewBox="0 0 300 300" style="enable-background:new 0 0 300 300;" xml:space="preserve">
<style type="text/css">
	.st0{fill:#F6B729;}
	.st1{opacity:0.13;fill:#010101;}
	.st2{fill:#FFFFFF;}
</style>
<g id="Capa_1">
</g>
<g id="Layer_1">
	<g>
		<circle class="st0" cx="149.68" cy="150.47" r="150"/>
		<path class="st1" d="M238.63,29.2C23.92,19.99,16.87,217.47,16.82,218.9C6.28,198.38,0.34,175.12,0.34,150.48
			c0-82.85,67.16-150,150-150C183.34,0.48,213.86,11.14,238.63,29.2z"/>
	</g>
	<g>
		<path class="st2" d="M200.15,202.5v22H96.95v-17.4l55.6-52.8c6.27-6,10.5-11.23,12.7-15.7c2.2-4.47,3.3-8.9,3.3-13.3
			c0-6.53-2.2-11.53-6.6-15c-4.4-3.47-10.87-5.2-19.4-5.2c-14.27,0-25.2,4.87-32.8,14.6l-18.2-14c5.47-7.33,12.83-13.03,22.1-17.1
			c9.27-4.07,19.63-6.1,31.1-6.1c15.2,0,27.33,3.6,36.4,10.8c9.06,7.2,13.6,17,13.6,29.4c0,7.6-1.6,14.73-4.8,21.4
			c-3.2,6.67-9.33,14.27-18.4,22.8l-37.4,35.6H200.15z"/>
	</g>
</g>
</svg>
