<?xml version="1.0" encoding="utf-8"?>
<!-- Generator: Adobe Illustrator 26.0.1, SVG Export Plug-In . SVG Version: 6.00 Build 0)  -->
<svg version="1.1" xmlns="http://www.w3.org/2000/svg" xmlns:xlink="http://www.w3.org/1999/xlink" x="0px" y="0px"
	 viewBox="0 0 300 300" style="enable-background:new 0 0 300 300;" xml:space="preserve">
<style type="text/css">
	.st0{fill:#FABC1C;}
	.st1{opacity:0.13;fill:#010101;}
	.st2{fill:#FFFFFF;}
</style>
<g id="Capa_1">
</g>
<g id="Layer_1">
</g>
<g id="OBJECTS">
	<g>
		<circle class="st0" cx="150" cy="150" r="150"/>
		<path class="st1" d="M238.3,28.7C23.6,19.5,16.5,217,16.5,218.4C5.9,197.9,0,174.6,0,150C0,67.2,67.2,0,150,0
			C183,0,213.5,10.7,238.3,28.7z"/>
		<g>
			<rect x="91" y="215.3" class="st2" width="118" height="19.5"/>
			<rect x="84.4" y="237.7" class="st2" width="131.2" height="5.8"/>
			<path class="st2" d="M105.6,212.7h88.9c0-7.5-6.1-13.6-13.6-13.6H157v-63.6h-14v63.6h-23.9C111.6,199.1,105.6,205.2,105.6,212.7z
				"/>
			<rect x="143" y="112.1" class="st2" width="14" height="8.4"/>
			<path class="st2" d="M140,128.4c0,2.3,1.9,4.3,4.3,4.3h11.4c2.3,0,4.3-1.9,4.3-4.3c0-2.3-1.9-4.3-4.3-4.3h-11.4
				C141.9,124.1,140,126,140,128.4z"/>
			<path class="st2" d="M248.3,145.2l-20.4-50c0.1-0.1,0.3-0.3,0.4-0.4c0.7-0.7,1.2-1.7,1.2-2.7c0-2.1-1.7-3.8-3.8-3.8
				c-2.1,0-3.8,1.7-3.8,3.8c0,1.3,0.6,2.4,1.6,3.1c-16.2-0.3-34.9-15.2-52.7-15.2c-9.3,0-14.7,3.9-17.7,7.4v-5h-6.4v5
				c-3-3.5-8.4-7.4-17.7-7.4c-17.8,0-36.5,15-52.7,15.2c1-0.7,1.6-1.8,1.6-3.1c0-2.1-1.7-3.8-3.8-3.8c-2.1,0-3.8,1.7-3.8,3.8
				c0,1.1,0.5,2,1.2,2.7c0.1,0.1,0.3,0.3,0.4,0.4l-20.4,50h-4.2c0,0,3.6,23.2,26.8,23.2s26.8-23.2,26.8-23.2h-4.2L77.9,98.9
				c10.3,4.2,27.5,2.7,46.8-4.1c18-6.3,18.3,14.9,18.3,14.9h7h7c0,0,0.3-21.2,18.3-14.9c19.4,6.8,36.6,8.3,46.8,4.1l-18.9,46.3H199
				c0,0,3.6,23.2,26.8,23.2c23.2,0,26.8-23.2,26.8-23.2H248.3z M95.1,145.2H53.4l19.9-48.9c0.7,0.6,1.5,1.1,2.4,1.6L95.1,145.2z
				 M224.3,97.9c0.9-0.5,1.7-1,2.4-1.6l19.9,48.9H205L224.3,97.9z"/>
			<path class="st2" d="M153.2,80.5l6.8-19.3c0,0-0.8-11.2-10.7-11.2c-9.9,0-10.7,11.2-10.7,11.2l8.1,19.3H153.2z"/>
		</g>
	</g>
</g>
</svg>
